[
  {
    "label": "server_name_1",
    "agileRelease": true,
    "appServerName": "server_name_1",
    "applicationNames": [
      "application_name_1"
    ]
  },
  {
    "label": "server_name_2",
    "agileRelease": true,
    "appServerName": "server_name_2",
    "applicationNames": [
      "application_name_2"
    ]
  },
  {
    "label": "server_name_3",
    "agileRelease": true,
    "appServerName": "server_name_3",
    "applicationNames": [
      "application_name_3"
    ]
  },
  {
    "label": "server_name_4",
    "agileRelease": true,
    "appServerName": "server_name_4",
    "applicationNames": [
      "application_name_4"
    ]
  }
]
